<svg viewBox="0.0 0.0 800 800" version="1.1" xmlns="http://www.w3.org/2000/svg"  ><g id="gpdmd" stroke="cyan" fill="cyan" stroke-width="2" opacity="1.0"  >
<path d="M 100.0 496.49399643790366 L 100.0 496.49399643790366 L 102.55905511811024 496.49399643790366 L 105.11811023622047 496.49399643790366 L 107.67716535433071 496.49399643790366 L 110.23622047244095 496.49399643790366 L 112.79527559055119 496.49399643790366 L 115.35433070866142 496.49399643790366 L 117.91338582677164 496.49399643790366 L 120.4724409448819 496.49399643790366 L 123.03149606299212 496.49399643790366 L 125.59055118110237 496.49399643790366 L 128.1496062992126 496.49399643790366 L 130.70866141732284 496.49399643790366 L 133.26771653543307 496.49399643790366 L 135.8267716535433 496.49399643790366 L 138.38582677165354 496.49399643790366 L 140.9448818897638 496.49399643790366 L 143.50393700787401 496.49399643790366 L 146.06299212598424 496.49399643790366 L 148.6220472440945 496.49399643790366 L 151.18110236220474 496.49399643790366 L 153.74015748031496 496.49399643790366 L 156.29921259842519 496.49399643790366 L 158.85826771653544 496.49399643790366 L 161.41732283464566 496.49399643790366 L 163.9763779527559 182.94635539170196 L 166.53543307086613 182.94635539170196 L 169.09448818897636 182.94635539170196 L 171.6535433070866 182.94635539170196 L 174.21259842519686 182.94635539170196 L 176.77165354330708 182.94635539170196 L 179.3307086614173 182.94635539170196 L 181.88976377952756 182.94635539170196 L 184.4488188976378 182.94635539170196 L 187.00787401574803 182.94635539170196 L 189.56692913385825 182.94635539170196 L 192.1259842519685 182.94635539170196 L 194.68503937007875 182.94635539170196 L 197.24409448818898 182.94635539170196 L 199.8031496062992 182.94635539170196 L 202.36220472440945 182.94635539170196 L 204.92125984251967 182.94635539170196 L 207.48031496062993 182.94635539170196 L 210.03937007874015 182.94635539170196 L 212.59842519685037 182.94635539170196 L 215.15748031496062 182.94635539170196 L 217.71653543307087 182.94635539170196 L 220.2755905511811 182.94635539170196 L 222.83464566929132 182.94635539170196 L 225.39370078740157 182.94635539170196 L 227.9527559055118 182.94635539170196 L 230.51181102362204 144.08237814827098 L 233.0708661417323 144.08237814827098 L 235.62992125984252 144.08237814827098 L 238.18897637795274 144.08237814827098 L 240.748031496063 144.08237814827098 L 243.30708661417322 144.08237814827098 L 245.86614173228347 144.08237814827098 L 248.4251968503937 144.08237814827098 L 250.98425196850394 144.08237814827098 L 253.54330708661416 144.08237814827098 L 256.1023622047244 144.08237814827098 L 258.6614173228346 144.08237814827098 L 261.2204724409449 144.08237814827098 L 263.7795275590551 144.08237814827098 L 266.33858267716533 144.08237814827098 L 268.8976377952756 144.08237814827098 L 271.45669291338584 144.08237814827098 L 274.01574803149606 144.08237814827098 L 276.5748031496063 144.08237814827098 L 279.1338582677165 144.08237814827098 L 281.6929133858268 144.08237814827098 L 284.251968503937 144.08237814827098 L 286.81102362204723 144.08237814827098 L 289.3700787401575 144.08237814827098 L 291.92913385826773 144.08237814827098 L 294.48818897637796 145.15491917429813 L 297.0472440944882 145.15491917429813 L 299.6062992125984 145.15491917429813 L 302.1653543307086 145.15491917429813 L 304.7244094488189 145.15491917429813 L 307.2834645669291 145.15491917429813 L 309.84251968503935 145.15491917429813 L 312.40157480314963 145.15491917429813 L 314.96062992125985 145.15491917429813 L 317.5196850393701 145.15491917429813 L 320.0787401574803 145.15491917429813 L 322.6377952755905 145.15491917429813 L 325.19685039370074 145.15491917429813 L 327.755905511811 145.15491917429813 L 330.31496062992125 145.15491917429813 L 332.8740157480315 145.15491917429813 L 335.43307086614175 145.15491917429813 L 337.99212598425197 145.15491917429813 L 340.5511811023622 145.15491917429813 L 343.1102362204724 145.15491917429813 L 345.66929133858264 145.15491917429813 L 348.2283464566929 145.15491917429813 L 350.78740157480314 145.15491917429813 L 353.3464566929134 145.15491917429813 L 355.9055118110236 145.15491917429813 L 358.4645669291338 145.15491917429813 L 361.0236220472441 162.10089215369626 L 363.5826771653543 162.10089215369626 L 366.1417322834646 162.10089215369626 L 368.7007874015748 162.10089215369626 L 371.25984251968504 162.10089215369626 L 373.8188976377953 162.10089215369626 L 376.3779527559055 162.10089215369626 L 378.9370078740157 162.10089215369626 L 381.496062992126 162.10089215369626 L 384.0551181102362 162.10089215369626 L 386.61417322834643 162.10089215369626 L 389.1732283464567 162.10089215369626 L 391.73228346456693 162.10089215369626 L 394.29133858267716 162.10089215369626 L 396.8503937007874 162.10089215369626 L 399.4094488188976 162.10089215369626 L 401.9685039370079 162.10089215369626 L 404.5275590551181 162.10089215369626 L 407.0866141732283 162.10089215369626 L 409.64566929133855 162.10089215369626 L 412.20472440944883 162.10089215369626 L 414.76377952755905 162.10089215369626 L 417.3228346456693 162.10089215369626 L 419.8818897637795 162.10089215369626 L 422.4409448818898 162.10089215369626 L 425.0 162.10089215369626 L 427.5590551181102 100.0 L 430.11811023622045 100.0 L 432.67716535433067 100.0 L 435.23622047244095 100.0 L 437.79527559055117 100.0 L 440.35433070866145 100.0 L 442.9133858267717 100.0 L 445.47244094488184 100.0 L 448.03149606299206 100.0 L 450.59055118110234 100.0 L 453.14960629921256 100.0 L 455.7086614173228 100.0 L 458.26771653543307 100.0 L 460.8267716535433 100.0 L 463.38582677165357 100.0 L 465.9448818897638 100.0 L 468.503937007874 100.0 L 471.06299212598424 100.0 L 473.62204724409446 100.0 L 476.1811023622047 100.0 L 478.74015748031496 100.0 L 481.29921259842524 100.0 L 483.85826771653547 100.0 L 486.41732283464563 100.0 L 488.97637795275585 100.0 L 491.5354330708661 119.09632364391447 L 494.0944881889763 119.09632364391447 L 496.6535433070866 119.09632364391447 L 499.21259842519686 119.09632364391447 L 501.7716535433071 119.09632364391447 L 504.3307086614173 119.09632364391447 L 506.8897637795276 119.09632364391447 L 509.4488188976378 119.09632364391447 L 512.007874015748 119.09632364391447 L 514.5669291338583 119.09632364391447 L 517.1259842519685 119.09632364391447 L 519.6850393700787 119.09632364391447 L 522.244094488189 119.09632364391447 L 524.8031496062993 119.09632364391447 L 527.3622047244094 119.09632364391447 L 529.9212598425197 119.09632364391447 L 532.4803149606298 119.09632364391447 L 535.0393700787401 119.09632364391447 L 537.5984251968503 119.09632364391447 L 540.1574803149606 119.09632364391447 L 542.7165354330709 119.09632364391447 L 545.275590551181 119.09632364391447 L 547.8346456692914 119.09632364391447 L 550.3937007874015 119.09632364391447 L 552.9527559055118 119.09632364391447 L 555.511811023622 119.09632364391447 L 558.0708661417323 144.90802327839944 L 560.6299212598425 144.90802327839944 L 563.1889763779528 144.90802327839944 L 565.748031496063 144.90802327839944 L 568.3070866141732 144.90802327839944 L 570.8661417322835 144.90802327839944 L 573.4251968503936 144.90802327839944 L 575.9842519685039 144.90802327839944 L 578.543307086614 144.90802327839944 L 581.1023622047244 144.90802327839944 L 583.6614173228347 144.90802327839944 L 586.2204724409448 144.90802327839944 L 588.7795275590552 144.90802327839944 L 591.3385826771653 144.90802327839944 L 593.8976377952756 144.90802327839944 L 596.4566929133858 144.90802327839944 L 599.0157480314961 144.90802327839944 L 601.5748031496063 144.90802327839944 L 604.1338582677165 144.90802327839944 L 606.6929133858268 144.90802327839944 L 609.251968503937 144.90802327839944 L 611.8110236220472 144.90802327839944 L 614.3700787401574 144.90802327839944 L 616.9291338582676 144.90802327839944 L 619.4881889763778 144.90802327839944 L 622.0472440944882 168.8829152216927 L 624.6062992125984 168.8829152216927 L 627.1653543307086 168.8829152216927 L 629.7244094488188 168.8829152216927 L 632.2834645669292 168.8829152216927 L 634.8425196850394 168.8829152216927 L 637.4015748031496 168.8829152216927 L 639.9606299212599 168.8829152216927 L 642.5196850393701 168.8829152216927 L 645.0787401574804 168.8829152216927 L 647.6377952755906 168.8829152216927 L 650.1968503937007 168.8829152216927 L 652.755905511811 168.8829152216927 L 655.3149606299212 168.8829152216927 L 657.8740157480314 168.8829152216927 L 660.4330708661416 168.8829152216927 L 662.992125984252 168.8829152216927 L 665.5511811023622 168.8829152216927 L 668.1102362204724 168.8829152216927 L 670.6692913385826 168.8829152216927 L 673.2283464566929 168.8829152216927 L 675.7874015748031 168.8829152216927 L 678.3464566929134 168.8829152216927 L 680.9055118110236 168.8829152216927 L 683.4645669291339 168.8829152216927 L 686.0236220472441 168.8829152216927 L 688.5826771653543 119.35182863608256 L 691.1417322834645 119.35182863608256 L 693.7007874015748 119.35182863608256 L 696.259842519685 119.35182863608256 L 698.8188976377952 119.35182863608256 L 701.3779527559054 119.35182863608256 L 703.9370078740158 119.35182863608256 L 706.496062992126 119.35182863608256 L 709.0551181102362 119.35182863608256 L 711.6141732283464 119.35182863608256 L 714.1732283464567 119.35182863608256 L 716.7322834645669 119.35182863608256 L 719.2913385826771 119.35182863608256 L 721.8503937007874 119.35182863608256 L 724.4094488188977 119.35182863608256 L 726.9685039370079 119.35182863608256 L 729.5275590551181 119.35182863608256 L 732.0866141732283 119.35182863608256 L 734.6456692913385 119.35182863608256 L 737.2047244094488 119.35182863608256 L 739.763779527559 119.35182863608256 L 742.3228346456692 119.35182863608256 L 744.8818897637796 119.35182863608256 L 747.4409448818898 119.35182863608256 L 750.0 119.35182863608256 " fill="none" stroke-dasharray="5 0"  >
<title>gpdmd</title>
</path>
<g id="gpdmd-markers" fill="cyan"  >
<circle cx="0" cy="0" r="0.3" transform="translate(100.0 496.49399643790366) scale(15 ) " stroke-width="0"  ><title>0.09</title>
</circle>
<circle cx="0" cy="0" r="0.3" transform="translate(163.9763779527559 182.94635539170196) scale(15 ) " stroke-width="0"  ><title>0.19</title>
</circle>
<circle cx="0" cy="0" r="0.3" transform="translate(227.9527559055118 182.94635539170196) scale(15 ) " stroke-width="0"  ><title>0.19</title>
</circle>
<circle cx="0" cy="0" r="0.3" transform="translate(291.92913385826773 144.08237814827098) scale(15 ) " stroke-width="0"  ><title>0.2</title>
</circle>
<circle cx="0" cy="0" r="0.3" transform="translate(355.9055118110236 145.15491917429813) scale(15 ) " stroke-width="0"  ><title>0.2</title>
</circle>
<circle cx="0" cy="0" r="0.3" transform="translate(419.8818897637795 162.10089215369626) scale(15 ) " stroke-width="0"  ><title>0.2</title>
</circle>
<circle cx="0" cy="0" r="0.3" transform="translate(483.85826771653547 100.0) scale(15 ) " stroke-width="0"  ><title>0.22</title>
</circle>
<circle cx="0" cy="0" r="0.3" transform="translate(547.8346456692914 119.09632364391447) scale(15 ) " stroke-width="0"  ><title>0.21</title>
</circle>
<circle cx="0" cy="0" r="0.3" transform="translate(611.8110236220472 144.90802327839944) scale(15 ) " stroke-width="0"  ><title>0.2</title>
</circle>
<circle cx="0" cy="0" r="0.3" transform="translate(675.7874015748031 168.8829152216927) scale(15 ) " stroke-width="0"  ><title>0.19</title>
</circle>
<circle cx="0" cy="0" r="0.3" transform="translate(739.763779527559 119.35182863608256) scale(15 ) " stroke-width="0"  ><title>0.21</title>
</circle>
</g>
</g>
<g id="lexicase" stroke="red" fill="red" stroke-width="2" opacity="1.0"  >
<path d="M 100.0 521.5651654037496 L 100.0 521.5651654037496 L 102.55905511811024 521.5651654037496 L 105.11811023622047 521.5651654037496 L 107.67716535433071 521.5651654037496 L 110.23622047244095 521.5651654037496 L 112.79527559055119 521.5651654037496 L 115.35433070866142 521.5651654037496 L 117.91338582677164 521.5651654037496 L 120.4724409448819 521.5651654037496 L 123.03149606299212 521.5651654037496 L 125.59055118110237 521.5651654037496 L 128.1496062992126 521.5651654037496 L 130.70866141732284 521.5651654037496 L 133.26771653543307 521.5651654037496 L 135.8267716535433 521.5651654037496 L 138.38582677165354 521.5651654037496 L 140.9448818897638 521.5651654037496 L 143.50393700787401 521.5651654037496 L 146.06299212598424 521.5651654037496 L 148.6220472440945 521.5651654037496 L 151.18110236220474 521.5651654037496 L 153.74015748031496 521.5651654037496 L 156.29921259842519 521.5651654037496 L 158.85826771653544 521.5651654037496 L 161.41732283464566 521.5651654037496 L 163.9763779527559 663.7655471398217 L 166.53543307086613 663.7655471398217 L 169.09448818897636 663.7655471398217 L 171.6535433070866 663.7655471398217 L 174.21259842519686 663.7655471398217 L 176.77165354330708 663.7655471398217 L 179.3307086614173 663.7655471398217 L 181.88976377952756 663.7655471398217 L 184.4488188976378 663.7655471398217 L 187.00787401574803 663.7655471398217 L 189.56692913385825 663.7655471398217 L 192.1259842519685 663.7655471398217 L 194.68503937007875 663.7655471398217 L 197.24409448818898 663.7655471398217 L 199.8031496062992 663.7655471398217 L 202.36220472440945 663.7655471398217 L 204.92125984251967 663.7655471398217 L 207.48031496062993 663.7655471398217 L 210.03937007874015 663.7655471398217 L 212.59842519685037 663.7655471398217 L 215.15748031496062 663.7655471398217 L 217.71653543307087 663.7655471398217 L 220.2755905511811 663.7655471398217 L 222.83464566929132 663.7655471398217 L 225.39370078740157 663.7655471398217 L 227.9527559055118 663.7655471398217 L 230.51181102362204 689.3947942848258 L 233.0708661417323 689.3947942848258 L 235.62992125984252 689.3947942848258 L 238.18897637795274 689.3947942848258 L 240.748031496063 689.3947942848258 L 243.30708661417322 689.3947942848258 L 245.86614173228347 689.3947942848258 L 248.4251968503937 689.3947942848258 L 250.98425196850394 689.3947942848258 L 253.54330708661416 689.3947942848258 L 256.1023622047244 689.3947942848258 L 258.6614173228346 689.3947942848258 L 261.2204724409449 689.3947942848258 L 263.7795275590551 689.3947942848258 L 266.33858267716533 689.3947942848258 L 268.8976377952756 689.3947942848258 L 271.45669291338584 689.3947942848258 L 274.01574803149606 689.3947942848258 L 276.5748031496063 689.3947942848258 L 279.1338582677165 689.3947942848258 L 281.6929133858268 689.3947942848258 L 284.251968503937 689.3947942848258 L 286.81102362204723 689.3947942848258 L 289.3700787401575 689.3947942848258 L 291.92913385826773 689.3947942848258 L 294.48818897637796 692.737739564609 L 297.0472440944882 692.737739564609 L 299.6062992125984 692.737739564609 L 302.1653543307086 692.737739564609 L 304.7244094488189 692.737739564609 L 307.2834645669291 692.737739564609 L 309.84251968503935 692.737739564609 L 312.40157480314963 692.737739564609 L 314.96062992125985 692.737739564609 L 317.5196850393701 692.737739564609 L 320.0787401574803 692.737739564609 L 322.6377952755905 692.737739564609 L 325.19685039370074 692.737739564609 L 327.755905511811 692.737739564609 L 330.31496062992125 692.737739564609 L 332.8740157480315 692.737739564609 L 335.43307086614175 692.737739564609 L 337.99212598425197 692.737739564609 L 340.5511811023622 692.737739564609 L 343.1102362204724 692.737739564609 L 345.66929133858264 692.737739564609 L 348.2283464566929 692.737739564609 L 350.78740157480314 692.737739564609 L 353.3464566929134 692.737739564609 L 355.9055118110236 692.737739564609 L 358.4645669291338 692.737739564609 L 361.0236220472441 661.5369169532996 L 363.5826771653543 661.5369169532996 L 366.1417322834646 661.5369169532996 L 368.7007874015748 661.5369169532996 L 371.25984251968504 661.5369169532996 L 373.8188976377953 661.5369169532996 L 376.3779527559055 661.5369169532996 L 378.9370078740157 661.5369169532996 L 381.496062992126 661.5369169532996 L 384.0551181102362 661.5369169532996 L 386.61417322834643 661.5369169532996 L 389.1732283464567 661.5369169532996 L 391.73228346456693 661.5369169532996 L 394.29133858267716 661.5369169532996 L 396.8503937007874 661.5369169532996 L 399.4094488188976 661.5369169532996 L 401.9685039370079 661.5369169532996 L 404.5275590551181 661.5369169532996 L 407.0866141732283 661.5369169532996 L 409.64566929133855 661.5369169532996 L 412.20472440944883 661.5369169532996 L 414.76377952755905 661.5369169532996 L 417.3228346456693 661.5369169532996 L 419.8818897637795 661.5369169532996 L 422.4409448818898 661.5369169532996 L 425.0 661.5369169532996 L 427.5590551181102 687.7588848925915 L 430.11811023622045 687.7588848925915 L 432.67716535433067 687.7588848925915 L 435.23622047244095 687.7588848925915 L 437.79527559055117 687.7588848925915 L 440.35433070866145 687.7588848925915 L 442.9133858267717 687.7588848925915 L 445.47244094488184 687.7588848925915 L 448.03149606299206 687.7588848925915 L 450.59055118110234 687.7588848925915 L 453.14960629921256 687.7588848925915 L 455.7086614173228 687.7588848925915 L 458.26771653543307 687.7588848925915 L 460.8267716535433 687.7588848925915 L 463.38582677165357 687.7588848925915 L 465.9448818897638 687.7588848925915 L 468.503937007874 687.7588848925915 L 471.06299212598424 687.7588848925915 L 473.62204724409446 687.7588848925915 L 476.1811023622047 687.7588848925915 L 478.74015748031496 687.7588848925915 L 481.29921259842524 687.7588848925915 L 483.85826771653547 687.7588848925915 L 486.41732283464563 687.7588848925915 L 488.97637795275585 687.7588848925915 L 491.5354330708661 691.8228282248789 L 494.0944881889763 691.8228282248789 L 496.6535433070866 691.8228282248789 L 499.21259842519686 691.8228282248789 L 501.7716535433071 691.8228282248789 L 504.3307086614173 691.8228282248789 L 506.8897637795276 691.8228282248789 L 509.4488188976378 691.8228282248789 L 512.007874015748 691.8228282248789 L 514.5669291338583 691.8228282248789 L 517.1259842519685 691.8228282248789 L 519.6850393700787 691.8228282248789 L 522.244094488189 691.8228282248789 L 524.8031496062993 691.8228282248789 L 527.3622047244094 691.8228282248789 L 529.9212598425197 691.8228282248789 L 532.4803149606298 691.8228282248789 L 535.0393700787401 691.8228282248789 L 537.5984251968503 691.8228282248789 L 540.1574803149606 691.8228282248789 L 542.7165354330709 691.8228282248789 L 545.275590551181 691.8228282248789 L 547.8346456692914 691.8228282248789 L 550.3937007874015 691.8228282248789 L 552.9527559055118 691.8228282248789 L 555.511811023622 691.8228282248789 L 558.0708661417323 639.979984967304 L 560.6299212598425 639.979984967304 L 563.1889763779528 639.979984967304 L 565.748031496063 639.979984967304 L 568.3070866141732 639.979984967304 L 570.8661417322835 639.979984967304 L 573.4251968503936 639.979984967304 L 575.9842519685039 639.979984967304 L 578.543307086614 639.979984967304 L 581.1023622047244 639.979984967304 L 583.6614173228347 639.979984967304 L 586.2204724409448 639.979984967304 L 588.7795275590552 639.979984967304 L 591.3385826771653 639.979984967304 L 593.8976377952756 639.979984967304 L 596.4566929133858 639.979984967304 L 599.0157480314961 639.979984967304 L 601.5748031496063 639.979984967304 L 604.1338582677165 639.979984967304 L 606.6929133858268 639.979984967304 L 609.251968503937 639.979984967304 L 611.8110236220472 639.979984967304 L 614.3700787401574 639.979984967304 L 616.9291338582676 639.979984967304 L 619.4881889763778 639.979984967304 L 622.0472440944882 674.0172459978234 L 624.6062992125984 674.0172459978234 L 627.1653543307086 674.0172459978234 L 629.7244094488188 674.0172459978234 L 632.2834645669292 674.0172459978234 L 634.8425196850394 674.0172459978234 L 637.4015748031496 674.0172459978234 L 639.9606299212599 674.0172459978234 L 642.5196850393701 674.0172459978234 L 645.0787401574804 674.0172459978234 L 647.6377952755906 674.0172459978234 L 650.1968503937007 674.0172459978234 L 652.755905511811 674.0172459978234 L 655.3149606299212 674.0172459978234 L 657.8740157480314 674.0172459978234 L 660.4330708661416 674.0172459978234 L 662.992125984252 674.0172459978234 L 665.5511811023622 674.0172459978234 L 668.1102362204724 674.0172459978234 L 670.6692913385826 674.0172459978234 L 673.2283464566929 674.0172459978234 L 675.7874015748031 674.0172459978234 L 678.3464566929134 674.0172459978234 L 680.9055118110236 674.0172459978234 L 683.4645669291339 674.0172459978234 L 686.0236220472441 674.0172459978234 L 688.5826771653543 700.0 L 691.1417322834645 700.0 L 693.7007874015748 700.0 L 696.259842519685 700.0 L 698.8188976377952 700.0 L 701.3779527559054 700.0 L 703.9370078740158 700.0 L 706.496062992126 700.0 L 709.0551181102362 700.0 L 711.6141732283464 700.0 L 714.1732283464567 700.0 L 716.7322834645669 700.0 L 719.2913385826771 700.0 L 721.8503937007874 700.0 L 724.4094488188977 700.0 L 726.9685039370079 700.0 L 729.5275590551181 700.0 L 732.0866141732283 700.0 L 734.6456692913385 700.0 L 737.2047244094488 700.0 L 739.763779527559 700.0 L 742.3228346456692 700.0 L 744.8818897637796 700.0 L 747.4409448818898 700.0 L 750.0 700.0 " fill="none" stroke-dasharray="5"  >
<title>lexicase</title>
</path>
<g id="lexicase-markers" fill="red"  >
<circle cx="0" cy="0" r="0.45" transform="translate(100.0 521.5651654037496) scale(15 ) " stroke-width="0"  ><title>0.08</title>
</circle>
<circle cx="0" cy="0" r="0.45" transform="translate(163.9763779527559 663.7655471398217) scale(15 ) " stroke-width="0"  ><title>0.03</title>
</circle>
<circle cx="0" cy="0" r="0.45" transform="translate(227.9527559055118 663.7655471398217) scale(15 ) " stroke-width="0"  ><title>0.03</title>
</circle>
<circle cx="0" cy="0" r="0.45" transform="translate(291.92913385826773 689.3947942848258) scale(15 ) " stroke-width="0"  ><title>0.03</title>
</circle>
<circle cx="0" cy="0" r="0.45" transform="translate(355.9055118110236 692.737739564609) scale(15 ) " stroke-width="0"  ><title>0.02</title>
</circle>
<circle cx="0" cy="0" r="0.45" transform="translate(419.8818897637795 661.5369169532996) scale(15 ) " stroke-width="0"  ><title>0.03</title>
</circle>
<circle cx="0" cy="0" r="0.45" transform="translate(483.85826771653547 687.7588848925915) scale(15 ) " stroke-width="0"  ><title>0.03</title>
</circle>
<circle cx="0" cy="0" r="0.45" transform="translate(547.8346456692914 691.8228282248789) scale(15 ) " stroke-width="0"  ><title>0.02</title>
</circle>
<circle cx="0" cy="0" r="0.45" transform="translate(611.8110236220472 639.979984967304) scale(15 ) " stroke-width="0"  ><title>0.04</title>
</circle>
<circle cx="0" cy="0" r="0.45" transform="translate(675.7874015748031 674.0172459978234) scale(15 ) " stroke-width="0"  ><title>0.03</title>
</circle>
<circle cx="0" cy="0" r="0.45" transform="translate(739.763779527559 700.0) scale(15 ) " stroke-width="0"  ><title>0.02</title>
</circle>
</g>
</g>
<g id="axis" text-anchor="middle" stroke="black" stroke-width="2" fill="black"  >
<path d="M 100.0 700 L 750.0 700 "  >
</path>
<text x="0" y="0" stroke-width="0.5" transform="translate(400 775) " font-size="25"  ></text>
<path d="M 95.0 700 l 10 0 M 100.0 695 l 0 10 M 203.33333333333331 700 l 10 0 M 208.33333333333331 695 l 0 10 M 311.66666666666663 700 l 10 0 M 316.66666666666663 695 l 0 10 M 420.0 700 l 10 0 M 425.0 695 l 0 10 M 528.3333333333333 700 l 10 0 M 533.3333333333333 695 l 0 10 M 636.6666666666666 700 l 10 0 M 641.6666666666666 695 l 0 10 M 745.0 700 l 10 0 M 750.0 695 l 0 10 "  >
</path>
<text x="100.0" y="747.5" text-anchor="middle" stroke-width="0.1" font-size="25" transform="rotate(0 100.0 747.5) "  >0.0000</text>
<text x="208.33333333333331" y="747.5" text-anchor="middle" stroke-width="0.1" font-size="25" transform="rotate(0 208.33333333333331 747.5) "  >42.4993</text>
<text x="316.66666666666663" y="747.5" text-anchor="middle" stroke-width="0.1" font-size="25" transform="rotate(0 316.66666666666663 747.5) "  >84.9987</text>
<text x="425.0" y="747.5" text-anchor="middle" stroke-width="0.1" font-size="25" transform="rotate(0 425.0 747.5) "  >127.4980</text>
<text x="533.3333333333333" y="747.5" text-anchor="middle" stroke-width="0.1" font-size="25" transform="rotate(0 533.3333333333333 747.5) "  >169.9974</text>
<text x="641.6666666666666" y="747.5" text-anchor="middle" stroke-width="0.1" font-size="25" transform="rotate(0 641.6666666666666 747.5) "  >212.4967</text>
<text x="750.0" y="747.5" text-anchor="middle" stroke-width="0.1" font-size="25" transform="rotate(0 750.0 747.5) "  >254.9961</text>
</g>
<g id="axis" text-anchor="middle" stroke="black" stroke-width="2" fill="black"  >
<path d="M 100 700.0 L 100 100.0 "  >
</path>
<text x="0" y="0" stroke-width="0.5" transform="translate(25 400) rotate(-90 0 0) " font-size="25"  ></text>
<path d="M 95 700.0 l 10 0 M 100 695.0 l 0 10 M 95 600.0 l 10 0 M 100 595.0 l 0 10 M 95 500.00000000000006 l 10 0 M 100 495.00000000000006 l 0 10 M 95 400.0 l 10 0 M 100 395.0 l 0 10 M 95 300.0 l 10 0 M 100 295.0 l 0 10 M 95 200.00000000000006 l 10 0 M 100 195.00000000000006 l 0 10 M 95 100.0 l 10 0 M 100 95.0 l 0 10 "  >
</path>
<text x="90" y="700.0" text-anchor="end" stroke-width="0.1" font-size="25" transform="rotate(0 90 700.0) "  >0.0216</text>
<text x="90" y="600.0" text-anchor="end" stroke-width="0.1" font-size="25" transform="rotate(0 90 600.0) "  >0.0541</text>
<text x="90" y="500.00000000000006" text-anchor="end" stroke-width="0.1" font-size="25" transform="rotate(0 90 500.00000000000006) "  >0.0866</text>
<text x="90" y="400.0" text-anchor="end" stroke-width="0.1" font-size="25" transform="rotate(0 90 400.0) "  >0.1191</text>
<text x="90" y="300.0" text-anchor="end" stroke-width="0.1" font-size="25" transform="rotate(0 90 300.0) "  >0.1516</text>
<text x="90" y="200.00000000000006" text-anchor="end" stroke-width="0.1" font-size="25" transform="rotate(0 90 200.00000000000006) "  >0.1841</text>
<text x="90" y="100.0" text-anchor="end" stroke-width="0.1" font-size="25" transform="rotate(0 90 100.0) "  >0.2166</text>
</g>
<g id="title" text-anchor="middle"  >
<text x="400" y="40" font-size="40"  ></text>
</g>
</svg>
